%   Julian Date           X (km)           Y (km)           Z (km)           Right Ascension (deg)           Declination (deg)
    2459216.4583333335           -34056818.7443394           -213278450.44062302           -89704965.84860201           -99.0725341456246           -22.554984265449537
    2459217.4583333335           -29056411.123855505           -214324873.9222422           -90338431.37178577           -97.72062123140739           -22.669384678504343
    2459218.4583333335           -24018181.6012706           -215265957.72155657           -90928233.19549093           -96.36641422610379           -22.7724011962228
    2459219.4583333335           -18944887.314900994           -216100747.41305587           -91473815.03330183           -95.01013570469311           -22.863944585284422
    2459220.4583333335           -13839315.25043118           -216828353.8005382           -91974647.59391777           -93.65201423200499           -22.94393406214265
    2459221.4583333335           -8704280.357208721           -217447953.55884525           -92430228.9721766           -92.29228375496844           -23.012297471557
    2459222.4583333335           -3542623.6491510794           -217958789.82747453           -92840085.01960462           -90.93118296467911           -23.06897144617923
    2459223.4583333335           1642789.7079770342           -218360172.75598776           -93203769.69436318           -89.56895463151159           -23.113901546141086
    2459224.4583333335           6849072.321499139           -218651480.00120214           -93520865.39050372           -88.20584491669261           -23.147042377716474
    2459225.4583333335           12073316.507624432           -218832157.1761745           -93790983.24645557           -86.84210266398301           -23.168357690260255
    2459226.4583333335           17312596.23659096           -218901718.2510041           -94013763.43267126           -85.47797867537012           -23.17782045076305
    2459227.4583333335           22563969.08563836           -218859745.90555865           -94188875.41839425           -84.11372497484606           -23.175412895511833
    2459228.4583333335           27824478.198571548           -218705891.83418518           -94316018.21749511           -82.74959406440372           -23.161126558498196
    2459229.4583333335           33091154.25051574           -218439877.00264362           -94394920.61341307           -81.38583817651441           -23.13496227637709
    2459230.4583333335           38361017.416293025           -218061491.85732162           -94425341.36313094           -80.02270852742997           -23.096930169935746
    2459231.4583333335           43631079.341364495           -217570596.48701745           -94407069.38025354           -78.66045457551805           -23.04704960219786
    2459232.4583333335           48898345.11379151           -216967120.73751482           -94339923.89720327           -77.29932328891245           -22.985349113447008
    2459233.4583333335           54159815.23602204           -216251064.27917364           -94223754.60655986           -75.93955842656958           -22.911866333608593
    2459234.4583333335           59412487.59521396           -215422496.62785056           -94058441.7816127           -74.58139983670829           -22.826647872582736
    2459235.4583333335           64653359.430767134           -214481557.11946464           -93843896.37619144           -73.22508277643746           -22.72974918926568
    2459236.4583333335           69879429.29793581           -213428454.83852252           -93580060.10384747           -71.8708372561038           -22.621234440130305
    2459237.4583333335           75087699.02624856           -212263468.50096714           -93266905.49647747           -70.51888741167618           -22.501176308364702
    2459238.4583333335           80275175.67151403           -210986946.2917479           -92904435.94249728           -69.16945090818695           -22.36965581468217
    2459239.4583333335           85438873.46027353           -209599305.65747783           -92492685.70466127           -67.82273837691726           -22.226762111015866
    2459240.4583333335           90575815.72568674           -208101033.05459058           -92031719.9176532           -66.47895288865705           -22.072592258397428
    2459241.4583333335           95683036.83344318           -206492683.65350205           -91521634.56559785           -65.13828946512658           -21.907250990403785
    2459242.4583333335           100757584.09686635           -204774880.99911106           -90962556.43958522           -63.80093463013878           -21.73085046359989
    2459243.4583333335           105796519.68001719           -202948316.62822178           -90354643.07540902           -62.4670660018309           -21.543509996464646
    2459244.4583333335           110796922.48777193           -201013749.64426872           -89698082.6716203           -61.13685192687522           -21.345355798307494
    2459245.4583333335           115755890.04178368           -198972006.2499362           -88993093.98810546           -59.81045115726081           -21.13652068970851
    2459246.4583333335           120670540.34146647           -196823979.23807284           -88239926.22531083           -58.48801256982232           -20.91714381600403
    2459247.4583333335           125538013.70879328           -194570627.44152138           -87438858.88432422           -57.16967492846234           -20.687370355345646
    2459248.4583333335           130355474.61615565           -192212975.14234212           -86590201.60798283           -55.85556668858502           -20.44735122281988
    2459249.4583333335           135120113.4962011           -189752111.4409726           -85694294.0031843           -54.545805843044995           -20.19724277209164
    2459250.4583333335           139829148.53283545           -187189189.58585316           -84751505.4445897           -53.24049980858692           -19.937206495980295
    2459251.4583333335           144479827.43229267           -184525426.26418173           -83762234.85995391           -51.93974535158387           -19.667408727336984
    2459252.4583333335           149069429.17362615           -181762100.8542315           -82726910.49723402           -50.643628551541184           -19.388020341504323
    2459253.4583333335           153595265.73760045           -178900554.6398796           -81645989.67370634           -49.35222480074872           -19.099216461589446
    2459254.4583333335           158054683.8131327           -175942189.98794624           -80519958.50731029           -48.06559883826121           -18.80117616769844
    2459255.4583333335           162445066.48057416           -172888469.48886895           -79349331.63040908           -46.783804816215536           -18.494082211190356
    2459256.4583333335           166763834.8708107           -169740915.06142595           -78134651.88622776           -45.50688639647544           -18.17812073494435
    2459257.4583333335           171008449.7996572           -166501107.02192995           -76876490.00811976           -44.234876875377864           -17.853481000514623
    2459258.4583333335           175176413.376446           -163170683.1187371           -75575444.28198005           -42.96779933447496           -17.5203551230017
    2459259.4583333335           179265270.58636457           -159751337.53245014           -74232140.19193974           -41.70566681494475           -17.17893781433227
    2459260.4583333335           183272610.84552777           -156244819.8426147           -72847230.04964261           -40.44848251350754           -16.829426135594584
    2459261.4583333335           187196069.52815935           -152652933.96148625           -71421392.60732089           -39.19623999759685           -16.472019258964487
    2459262.4583333335           191033329.46524084           -148977537.03539643           -69955332.65486592           -37.94892343756363           -16.10691823966958
    2459263.4583333335           194782122.41371012           -145220538.31454515           -68449780.60120828           -36.706507853840925           -15.734325798385031
    2459264.4583333335           198440230.4957018           -141383897.99169904           -66905492.04018873           -35.468959376936915           -15.354446114341496
    2459265.4583333335           202005487.6070657           -137469626.01050323           -65323247.30118872           -34.236235518285504           -14.967484629373063
    2459266.4583333335           205475780.79446435           -133479780.84409118           -63703850.984782554           -33.008285450060036           -14.573647863059692
    2459267.4583333335           208849051.6004067           -129416468.24461168           -62048131.48364623           -31.785050292135704           -14.173143239046077
    2459268.4583333335           212123297.37566435           -125281839.96427163           -60356940.48895634           -30.56646340447794           -13.76617892255301
    2459269.4583333335           215296572.5581587           -121078092.44880092           -58631152.482625656           -29.352450683452627           -13.352963669073342
    2459270.4583333335           218366989.91808122           -116807465.50360884           -56871664.21547838           -28.14293086045998           -12.93370668412579
    2459271.4583333335           221332721.7682077           -112472240.93379332           -55079394.171821125           -26.937815801688178           -12.508617493982069
    2459272.4583333335           224192001.1391125           -108074741.15827313           -53255282.020506464           -25.737010807634128           -12.07790582715126
    2459273.4583333335           226943122.9185251           -103617327.79896672           -51400288.05285585           -24.540414911344726           -11.641781506429728
    2459274.4583333335           229584444.95421106           -99102400.24570382           -49515392.60770657           -23.34792117438376           -11.20045435126902
    2459275.4583333335           232114389.1199228           -94532394.19744766           -47601595.48381127           -22.159416979606863           -10.754134090170801
    2459276.4583333335           234531442.34367847           -89909780.18068841           -45659915.339925244           -20.97478432002579           -10.303030282822114
    2459277.4583333335           236834157.59792015           -85237062.0456496           -43691389.08283947           -19.793900083077613           -9.84735225163692
    2459278.4583333335           239021154.8509016           -80516775.44107619           -41697071.24365819           -18.61663632976354           -9.38730902236601
    2459279.4583333335           241091121.97883           -75751486.26826778           -39678033.34258646           -17.442860568183704           -8.923109273408791
    2459280.4583333335           243042815.63812274           -70943789.11524579           -37635363.24258201           -16.272436021149467           -8.45496129347053
    2459281.4583333335           244875062.09730977           -66096305.67167039           -35570164.49211435           -15.105221887571707           -7.983072947171044
    2459282.4583333335           246586758.02799916           -61211683.12539387           -33483555.657388162           -13.941073597473078           -7.50765164822891
    2459283.4583333335           248176871.25443417           -56292592.5412854           -31376669.64428231           -12.779843060488176           -7.028904339814872
    2459284.4583333335           249644441.46105415           -51341727.22331565           -29250653.01040668           -11.621378907871081           -6.547037481698057
    2459285.4583333335           250988580.85761598           -46361801.06049792           -27106665.267512366           -10.465526728002573           -6.062257043768006
    2459286.4583333335           252208474.80133194           -41355546.857675545           -24945878.1746604           -9.312129295541714           -5.574768505552012
    2459287.4583333335           253303382.37555194           -36325714.651870996           -22769475.022436135           -8.161026794358436           -5.0847768613208535
    2459288.4583333335           254272636.92451257           -31275070.015055362           -20578649.908560004           -7.0120570344662445           -4.592486630390091
    2459289.4583333335           255115646.54367155           -26206392.344238054           -18374607.00526265           -5.865055663229164           -4.098101872229567
    2459290.4583333335           255831894.52516735           -21122473.139689792           -16158559.818756863           -4.719856371137852           -3.6018262059874706
    2459291.4583333335           256420939.75795692           -16026114.27222532           -13931730.441188065           -3.5762910925110365           -3.1038628340480545
    2459292.4583333335           256882417.08218992           -10920126.240487596           -11695348.795452952           -2.434190201513841           -2.6044145692462015
    2459293.4583333335           257216037.5974114           -5807326.418892203           -9450651.873153783           -1.2933827038490122           -2.1036838653370507
    2459294.4583333335           257421588.92414802           -690537.2975789579           -7198882.966255581           -0.15369642465480035           -1.6018728503876933
    2459295.4583333335           257498935.4185037           4427415.285040377           -4941290.8926864285           0.9850418070062618           -1.0991833626870873
    2459296.4583333335           257448018.33937588           9543703.916018015           -2679129.2163508763           2.1230059765478426           -0.5958169888229693
    2459297.4583333335           257268855.96791625           14655501.386980277           -413655.4619377805           3.260370704663522           -0.09197510355616255
    2459298.4583333335           256961543.67889273           19759982.47747483           1853869.674995252           4.397311069986913           0.41214108885427464
    2459299.4583333335           256526253.96360776           24854325.741822064           4122183.12235649           5.534002433144219           0.9163305122609018
    2459300.4583333335           255963236.40407097           29935715.298074737           6390020.229674975           6.670620261583663           1.4203921754934745
    2459301.4583333335           255272817.59810984           35001342.618428424           8656115.56980073           7.807339954729394           1.9241251288739087
    2459302.4583333335           254455401.0351687           40048408.31964373           10919203.743530657           8.944336668835065           2.4273284206992476
    2459303.4583333335           253511466.92250538           45074123.952780224           13178020.186863448           10.08178514108167           2.929801054085164
    2459304.4583333335           252441571.96159744           50075713.79076969           15431301.980245657           11.219859512298815           3.4313419444895503
    2459305.4583333335           251246349.0745006           55050416.61306889           17677788.659482963           12.358733147858741           3.9317498783083527
    2459306.4583333335           249926507.08003336           59995487.485926405           19916223.027677555           13.49857845614647           4.430823472870222
    2459307.4583333335           248482830.31957752           64908199.53740822           22145351.967821445           14.639566704163602           4.928361138220712
    2459308.4583333335           246916178.23239648           69785845.72585796           24363927.255463764           15.781867829736294           5.424161041044529
    2459309.4583333335           245227484.88039762           74625740.6005472           26570706.37090595           16.925650249837574           5.918021071087647
    2459310.4583333335           243417758.42217255           79425222.05363968           28764453.310539845           18.07108066464622           6.40973881048245
    2459311.4583333335           241488080.53642958           84181653.06177445           30943939.39657493           19.21832385680252           6.899111506302709
    2459312.4583333335           239439605.79464966           88892423.4165607           33107944.08484163           20.3675424855854           7.385936046779066
    2459313.4583333335           237273560.983155           93554951.44227478           35255255.769907236           21.51889687553655           7.870008941511309
    2459314.4583333335           234991244.37450093           98166685.69993277           37384672.58713327           22.672544799307623           8.351126306106547
    2459315.4583333335           232594024.94844842           102725106.67609225           39495003.210932426           23.828641254354707           8.829083851594877
    2459316.4583333335           230083341.56252468           107227728.45543684           41585067.64879621           24.987338233323634           9.303676879048636
    2459317.4583333335           227460702.07244062           111672100.37562293           43653698.03040565           26.148784487885212           9.774700279777983
    2459318.4583333335           224727682.4025467           116055808.66323708           45699739.39129403           27.313125285925878           10.24194854151242
    2459319.4583333335           221885925.56660786           120376478.04947953           47722050.450432666           28.480502162009753           10.70521576095921
    2459320.4583333335           218937140.639212           124631773.36430784           49719504.38115025           29.651052661121845           11.16429566313746
    2459321.4583333335           215883101.67809966           128819401.10775071           51690989.574798375           30.82491007577924           11.618981627888372
    2459322.4583333335           212725646.59794962           132937110.9969758           53635410.3964907           32.00220317662894           12.069066723935876
    2459323.4583333335           209466675.99586648           136982697.48795           55551687.932390094           33.18305593682397           12.514343750905766
    2459324.4583333335           206108151.92929673           140954001.27016157           57438760.72780909           34.36758725043672           12.954605289650047
    2459325.4583333335           202652096.6466759           144848910.7333138           59295585.51562125           35.555910645405454           13.389643761271598
    2459326.4583333335           199100591.27159768           148665363.40447155           61121137.93425439           36.74813399147377           13.819251495174878
    2459327.4583333335           195455774.4409839           152401347.3544875           62914413.23471379           37.94435920379889           14.243220806496307
    2459328.4583333335           191719840.8981154           156054902.57227072           64674426.97593765           39.1446819429208           14.661344083210242
    2459329.4583333335           187895040.04100603           159624122.30579394           66400215.70796173           40.34919131201738           15.073413883228547
    2459330.4583333335           183983674.42728823           163107154.3682461           68090837.6421108           41.557969552307604           15.479223041717006
    2459331.4583333335           179988098.23607576           166502202.40836227           69745373.30775142           42.77109173780454           15.87856478890037
    2459332.4583333335           175910715.68793845           169807527.14345384           71362926.19487922           43.9886254705591           16.271232878525822
    2459333.4583333335           171753979.42392886           173021447.55394152           72942623.38194218           45.210630577740275           16.657021727142975
    2459334.4583333335           167520388.8445013           176142342.03823304           74483616.14833249           46.43715881204877           17.035726564324456
    2459335.4583333335           163212488.40961125           179168649.5265882           75985080.57085906           47.6682535569809           17.407143593865946
    2459336.4583333335           158832865.90094066           182098870.55289692           77446218.103661           48.903949538684806           17.77107016598728
    2459337.4583333335           154384150.64749116           184931568.28313926           78866256.14093304           50.14427254619298           18.127304960472998
    2459338.4583333335           149869011.71577322           187665369.49939054           80244448.56187926           51.38923916194289           18.475648180634952
    2459339.4583333335           145290156.06576848           190298965.53831226           81580076.2573439           52.638856504620016           18.815901757918024
    2459340.4583333335           140650326.674141           192831113.18293852           82872447.63750036           53.89312198637495           19.14786956687797
    2459341.4583333335           135952300.62598935           195260635.5067986           84120899.12008193           55.15202308661141           19.471357650203924
    2459342.4583333335           131198887.17652354           197586422.6693267           85324795.59860298           56.415537144575715           19.786174453371903
    2459343.4583333335           126392925.78419343           199807432.6615915           86483530.89003867           57.68363117300856           20.092131068427516
    2459344.4583333335           121537284.11691652           201922692.00136268           87596528.16142234           58.95626169511874           20.389041486306137
    2459345.4583333335           116634856.0326868           203931296.37668455           88663240.33490963           60.2333746072393           20.676722857037863
    2459346.4583333335           111688559.53648873           205832411.23706824           89683150.47078641           61.5149050693697           20.95499575705836
    2459347.4583333335           106701334.71493906           207625272.33149657           90655772.12797678           62.80077742587876           21.223684462792296
    2459348.4583333335           101676141.6505781           209309186.19248053           91580649.70158604           64.0909051584741           21.482617229561743
    2459349.4583333335           96615958.31734227           210883530.56548998           92457358.73708028           65.38519087353929           21.731626574811077
    2459350.4583333335           91523778.4592455           212347754.78304648           93285506.22065914           66.68352632570237           21.97054956453231
    2459351.4583333335           86402609.45377842           213701380.082972           94064730.8454936           67.9857924794804           22.199228101725673
    2459352.4583333335           81255470.16226046           214943999.87012517           94794703.25340085           69.29185961048023           22.417509215623138
    2459353.4583333335           76085388.76868768           216075279.92125657           95475126.25168276           70.60158744760795           22.625245350371305
    2459354.4583333335           70895400.60928737           217094958.53246602           96105735.00476764           71.91482535732891           22.822294651782425
    2459355.4583333335           65688545.9945016           218002846.6089661           96686297.20040748           73.23141257088369           23.00852125073586
    2459356.4583333335           60467868.02549748           218798827.69680622           97216613.19014853           74.55117845497882           23.18379554175794
    2459357.4583333335           55236410.40723909           219482857.95631593           97696516.1038416           75.87394282617531           23.34799445528528
    2459358.4583333335           49997215.259983405           220054966.07712212           98125871.93800496           77.1995163089105           23.501001722106757
    2459359.4583333335           44753320.931460395           220515253.13461882           98504579.61784841           78.52770073664           23.642708128463905
    2459360.4583333335           39507759.811511785           220863892.38783124           98832571.03282006           79.85828959534429           23.773011760317974
    2459361.4583333335           34263556.15153813           221101129.0187343           99109811.04555534           81.19106850813755           23.891818235297745
    2459362.4583333335           29023723.890640408           221227279.8130922           99336297.47414276           82.52581575945483           23.999040920899215
    2459363.4583333335           23791264.490502123           221242732.7830122           99512061.0476583           83.8623028568888           24.094601137554662
    2459364.4583333335           18569164.78132443           221147946.7314061           99637165.3349231           85.20029512831333           24.17842834525555
    2459365.4583333335           13360394.820548937           220943450.75872532           99711706.64652377           86.53955235173346           24.250460312506394
    2459366.4583333335           8167905.766759343           220629843.71228814           99735813.91010416           87.87982941479798           24.310643266473477
    2459367.4583333335           2994627.7706310824           220207793.57868728           99709648.51902066           89.22087700073979           24.35893202330995
    2459368.4583333335           -2156532.1150456965           219678036.81974363           99633404.154447           90.56244229718891           24.395290097758533
    2459369.4583333335           -7282692.004014812           219041377.65267414           99507306.5810876           91.90426972399742           24.41968979126134
    2459370.4583333335           -12380997.222156942           218298687.2750213           99331613.4166368           93.24610167614523           24.432112257956106
    2459371.4583333335           -17448622.32778451           217450903.0351711           99106613.87521416           94.58767927748565           24.432547548078762
    2459372.4583333335           -22482773.104830034           216499027.54918483           98832628.48498894           95.92874314108506           24.420994628453478
    2459373.4583333335           -27480688.526973646           215444127.76481193           98510008.78025869           97.26903413179076           24.397461379906346
    2459374.4583333335           -32439642.690646578           214287333.97364882           98139136.96829155           98.60829412659844           24.361964571601735
    2459375.4583333335           -37356946.71529594           213029838.77237403           97720425.57124066           99.94626676852421           24.31452981245945
    2459376.4583333335           -42229950.60880999           211672895.97414678           97254317.04349713           101.28269820961803           24.25519147997224
    2459377.4583333335           -47056045.09647845           210217819.4712941           96741283.36487623           102.61733783898605           24.18399262689491
    2459378.4583333335           -51832663.41170302           208665982.0504017           96181825.6100321           103.94993899180203           24.10098486642833
    2459379.4583333335           -56557283.04672997           207018814.16112024           95576473.49457653           105.28025963548612           24.006228236660824
    2459380.4583333335           -61227427.46172018           205277802.63989952           94925784.89834857           106.60806302947817           23.899791045165763
    2459381.4583333335           -65840667.750642136           203444489.3900496           94230345.36636013           107.93311835533031           23.78174969477092
    2459382.4583333335           -70394624.26237324           201520470.01949015           93490767.58793294           109.25520131411389           23.652188491629925
    2459383.4583333335           -74886968.17554632           199507392.43760535           92707690.85457282           110.57409468849009           23.51119943682128
    2459384.4583333335           -79315423.02567661           197406955.41281947           91881780.49720944           111.88958886711248           23.35888200278517
    2459385.4583333335           -83677766.18327813           195220907.09221113           91013727.30332127           113.20148232945087           23.19534289597567
    2459386.4583333335           -87971830.28155863           192951043.48497277           90104246.91466221           114.5095820894102           23.02069580716507
    2459387.4583333335           -92195504.59258802           190599206.9111566           89154079.20616981           115.81370409658932           22.835061150870086
    2459388.4583333335           -96346736.35063344           188167284.41748756           88163987.64677544           117.11367359429994           22.638565795405103
    2459389.4583333335           -100423532.02160281           185657206.1618344           87134758.64276755           118.40932543389859           22.43134278507229
    2459390.4583333335           -104423958.51771408           183070943.76808664           86067200.86442666           119.70050434535025           22.213531055990423
    2459391.4583333335           -108346144.35614778           180410508.65323108           84962144.55667713           120.98706516417192           21.985275147069054
    2459392.4583333335           -112188280.76106381           177677950.32831526           83820440.83446196           122.26887301537317           21.74672490758129
    2459393.4583333335           -115948622.70803608           174875354.6751576           82642960.96362276           123.54580345519202           21.498035202768477
    2459394.4583333335           -119625489.91015266           172004842.2005852           81430595.6280416           124.81774257173751           21.23936561885573
    2459395.4583333335           -123217267.7452998           169068566.2699947           80184254.18381006           126.08458704594254           20.97088016878731
    2459396.4583333335           -126722408.1237131           166068711.32219088           78904863.90126629           127.34624417430737           20.692746999955936
    2459397.4583333335           -130139430.29567096           163007491.06718484           77593369.19562717           128.60263185531014           20.40513810508244
    2459398.4583333335           -133466921.59865086           159887146.66894242           76250730.84708196           129.85367854132963           20.108229037365017
    2459399.4583333335           -136703538.14361477           156709944.9148874           74877925.21113639           131.09932315814717           19.802198630916184
    2459400.4583333335           -139848005.44026354           153478176.37401876           73475943.4200277           132.33951499420817           19.487228727415978
    2459401.4583333335           -142899118.96093893           150194153.54553446           72045790.57604687           133.5742135618404           19.163503909836944
    2459402.4583333335           -145855744.64313775           146860208.99969298           70588484.93754183           134.8033884327471           18.83121124399013
    2459403.4583333335           -148716819.33044317           143478693.51304165           69105057.09855102           136.02701904999225           18.49054002858428
    2459404.4583333335           -151481351.15210855           140051974.19939476           67596549.16269778           137.24509451890597           18.1416815543495
    2459405.4583333335           -154148419.84115788           136582432.6388729           66064013.91238405           138.45761337904827           17.784828872760425
    2459406.4583333335           -156717176.99136698           133072463.00641786           64508513.97393563           139.6645833595828           17.420176574744314
    2459407.4583333335           -159186846.25318426           129524470.20180288           62931120.97961941           140.8660211201609           17.04792057973216
    2459408.4583333335           -161556723.46901894           125940867.98276617           61332914.727285735           142.06195197947503           16.668257935297618
    2459409.4583333335           -163826176.74824595           122324077.10308367           59714982.33847595           143.2524096334833           16.281386627576406
    2459410.4583333335           -165994646.48228928           118676523.45725465           58078417.415775694           144.437435865228           15.88750540258732
    2459411.4583333335           -168061645.30035472           115000636.2335088           56424319.200214796           145.61708024807817           15.486813598507585
    2459412.4583333335           -170026757.96638173           111298846.07672016           54753791.72946262           146.79139984412413           15.079510988893366
    2459413.4583333335           -171889641.21777034           107573583.26296768           53067942.9976414           147.9604588992817           14.665797636800455
    2459414.4583333335           -173650023.54663384           103827275.88721554           51367884.1174635           149.12432853661932           14.245873759685491
    2459415.4583333335           -175307704.92421952           100062348.06569563           49654728.48545087           150.28308644924212           13.819939604943261
    2459416.4583333335           -176862556.4694401           96281218.15454635           47929590.95098824           151.43681659397777           13.388195335883635
    2459417.4583333335           -178314520.0621713           92486296.98609328           46193586.989883974           152.58560888697036           12.950840927923473
    2459418.4583333335           -179663607.90232497           88679986.12429877           44447831.883185394           153.72955890216943           12.508076074737254
    2459419.4583333335           -180909902.01562804           84864676.14068806           42693439.90189507           154.86876757360838           12.060100104074134
    2459420.4583333335           -182053553.70702863           81042744.91213156           40931523.49827168           156.00334090221963           11.607111902939375
    2459421.4583333335           -183094782.9627859           77216555.94178128           39163192.50436487           157.13338966784534           11.149309851810372
    2459422.4583333335           -184033877.8023383           73388456.7044386           37389553.338427976           158.2590291469909           10.686891767544878
    2459423.4583333335           -184871193.5809457           69560777.01745927           35611708.219772585           159.38037883678652           10.220054854618521
    2459424.4583333335           -185607152.2443881           65735827.43850441           33830754.392731965           160.49756218549055           9.74899566433448
    2459425.4583333335           -186242241.53673422           61915897.69116427           32047783.360265553           161.61070632980693           9.273910061629516
    2459426.4583333335           -186777014.16246372           58103255.11948687           30263880.127746247           162.71994183922033           8.794993199089541
    2459427.4583333335           -187212086.9041618           54300143.172535144           28480122.457516998           163.82540246742388           8.312439497806224
    2459428.4583333335           -187548139.6969838           50508779.919831626           26697580.134679444           164.9272249108998           7.82644263468136
    2459429.4583333335           -187785914.66118014           46731356.59867729           24917314.244641867           166.02554857460242           7.337195535803986
    2459430.4583333335           -187926215.09401965           42970036.19421509           23140376.462902673           167.12051534465365           6.844890375519449
    2459431.4583333335           -187969904.42228502           39226952.0529933           21367808.357487272           168.21226936790865           6.349718580808791
    2459432.4583333335           -187917905.11683518           35504206.530896805           19600640.70452165           169.30095683817538           5.851870840612811
    2459433.4583333335           -187771197.57042286           31803869.676107638           17839892.81732002           170.386725788847           5.351537119728874
    2459434.4583333335           -187530818.94015062           28127977.94780028           16086571.889392184           171.46972589165136           4.848906676919743
    2459435.4583333335           -187197861.95595133           24478532.971182294           14341672.351733252           172.5501082611963           4.34416808687416
    2459436.4583333335           -186773473.69644788           20857500.32947407           12606175.244750902           173.6280252649439           3.837509265669842
    2459437.4583333335           -186258854.333452           17266808.393390983           10881047.605167989           174.70363033820888           3.3291174993983432
    2459438.4583333335           -185655255.8466348           13708347.188595358           9167241.868205057           175.77707780377537           2.8191794756073545
    2459439.4583333335           -184963980.7095893           10183967.30154204           7465695.285315383           176.84852269569015           2.3078813172252377
    2459440.4583333335           -184186380.54869902           6695478.824221631           5777329.357791847           177.91812058674066           1.7954086186535931
    2459441.4583333335           -183323854.7762203           3244650.3379819826           4103049.2864129813           178.98602741919225           1.2819464836795742
    2459442.4583333335           -182377849.19880897           -166792.06300056982           2443743.437473414           -179.94760066179148           0.7676795649265988
    2459443.4583333335           -181349854.6030166           -3537165.70855324           800282.8253101076           -178.88260747247995           0.2527921044973659
    2459444.4583333335           -180241405.31888396           -6864832.249289593           -826479.3884372921           -177.81883695321446           -0.26253202448528856
    2459445.4583333335           -179054077.7631554           -10148198.513123425           -2435708.378637067           -176.756133329886           -0.7781092757412726
    2459446.4583333335           -177789488.96331406           -13385717.321396215           -4026588.123414965           -175.6943412747713           -1.2937563874110396
    2459447.4583333335           -176449295.06383163           -16575888.264485458           -5598321.853693318           -174.63330606726618           -1.8092903396473883
    2459448.4583333335           -175035189.81578916           -19717258.436792016           -7150132.485396387           -173.57287375505453           -2.324528312522831
    2459449.4583333335           -173548903.05135494           -22808423.131014265           -8681263.034185385           -172.51289131626748           -2.8392876445416104
    2459450.4583333335           -171992199.14416516           -25848026.491738785           -10190977.012666581           -171.45320682314514           -3.353385792069267
    2459451.4583333335           -170366875.45704508           -28834762.128314592           -11678558.809965022           -170.39366960775212           -3.8666402899682235
    2459452.4583333335           -168674760.77816576           -31767373.687060244           -13143314.05361294           -169.33413043026408           -4.3788687137461375
    2459453.4583333335           -166917713.74698395           -34644655.38283896           -14584569.953680988           -168.2744416503608           -4.88988864350986
    2459454.4583333335           -165097621.2709676           -37465452.49013684           -16001675.629146565           -167.2144574022096           -5.399517630044134
    2459455.4583333335           -163216396.9345134           -40228661.7937374           -17394002.4164496           -166.15403377355798           -5.907573163308626
    2459456.4583333335           -161275979.40107298           -42933231.99909544           -18760944.160214003           -165.093028989424           -6.413872643663426
    2459457.4583333335           -159278330.80962127           -45578164.10268156           -20101917.48618307           -164.0313036008143           -6.918233356153158
    2459458.4583333335           -157225435.1666998           -48162511.72234608           -21416362.056308493           -162.96872067897314           -7.420472448140119
    2459459.4583333335           -155119296.73501372           -50685381.388027854           -22703740.806075227           -161.90514601554           -7.920406910631119
    2459460.4583333335           -152961938.41970792           -53145932.79296643           -23963540.164058533           -160.8404483290429           -8.417853563610656
    2459461.4583333335           -150755400.15341765           -55543379.005733095           -25195270.253783055           -159.7744994780832           -8.91262904571646
    2459462.4583333335           -148501737.28107822           -57876986.64323454           -26398465.07788664           -158.70717468158458           -9.404549808577727
    2459463.4583333335           -146203018.94550392           -60146076.00510318           -27572682.684708934           -157.63835274636898           -9.893432116172272
    2459464.4583333335           -143861326.4748284           -62350021.16970125           -28717505.317333795           -156.56791630236327           -10.379092049524585
    2459465.4583333335           -141478751.7726521           -64488250.05203458           -29832539.545161866           -155.49575204565303           -10.86134551709462
    2459466.4583333335           -139057395.71194112           -66560244.42397214           -30917416.378122006           -154.42175098955119           -11.34000827120417
    2459467.4583333335           -136599366.5335964           -68565539.89702721           -31971791.363575075           -153.34580872383773           -11.814895930835535
    2459468.4583333335           -134106778.25058915           -70503725.86813577           -32995344.666045904           -152.26782568221384           -12.285824011160186
    2459469.4583333335           -131581749.05860358           -72374445.42872487           -33987781.129852094           -151.187707418017           -12.752607960127287
    2459470.4583333335           -129026399.75398064           -74177395.23750176           -34948830.324769326           -150.10536488811488           -13.215063202467226
    2459471.4583333335           -126442852.15997303           -75912325.35728215           -35878246.57480977           -149.02071474491026           -13.673005191423549
    2459472.4583333335           -123833227.56196544           -77579039.05632167           -36775808.970276356           -147.9336796362098           -14.126249468567979
    2459473.4583333335           -121199645.15263607           -79177392.5744494           -37641321.36316335           -146.8441885127509           -14.574611731992057
    2459474.4583333335           -118544220.48778015           -80707294.85457084           -38474612.34610747           -145.75217694297038           -15.017907913210164
    2459475.4583333335           -115869063.95368272           -82168707.23973872           -39275535.21492148           -144.65758743467353           -15.455954263033554
    2459476.4583333335           -113176279.24664398           -83561643.13641125           -40043967.91494482           -143.5603697629777           -15.88856744673293
    2459477.4583333335           -110467961.86563557           -84886167.64420165           -40779812.97128416           -142.4604813040055           -16.31556464871013
    2459478.4583333335           -107746197.61862552           -86142397.15254007           -41482997.403095655           -141.3578873735737           -16.73676368693442
    2459479.4583333335           -105013061.14350206           -87330498.90483116           -42153472.62210735           -140.25256157007112           -17.15198313734344
    2459480.4583333335           -102270614.4440925           -88450690.53031778           -42791214.31544371           -139.14448612064098           -17.561042468387054
    2459481.4583333335           -99520905.44217272           -89503239.5442763           -43396222.312972054           -138.03365222965135           -17.963762185853927
    2459482.4583333335           -96765966.54607213           -90488462.81694713           -43968520.43931057           -136.920060428346           -18.359963988089497
    2459483.4583333335           -94007813.23657957           -91406726.01158927           -44508156.35062608           -135.80372092450264           -18.7494709316598
    2459484.4583333335           -91248442.6707429           -92258442.99215208           -45015201.356401406           -134.68465395077058           -19.13210760749011
    2459485.4583333335           -88489832.30436474           -93044075.20106229           -45489750.22634241           -133.56289011033488           -19.507700327430793
    2459486.4583333335           -85733938.53370824           -93764131.00755274           -45931920.98258039           -132.43847071841247           -19.876077321174936
    2459487.4583333335           -82982695.35712413           -94419165.0269049           -46341854.677291386           -131.31144813808686           -20.23706894336792
    2459488.4583333335           -80238013.05718239           -95009777.41131265           -46719715.15600508           -130.18188610878187           -20.590507890723327
    2459489.4583333335           -77501776.90399836           -95536613.11252397           -47065688.806634314           -129.04986006582723           -20.93622942884433
    2459490.4583333335           -74775845.88032229           -96000361.11702445           -47379984.2945235           -127.91545744930204           -21.274071628434612
    2459491.4583333335           -72062051.42894047           -96401753.65407555           -47662832.283620656           -126.77877800044502           -21.603875610483815
    2459492.4583333335           -69362196.22315751           -96741565.37707354           -47914485.14393537           -125.63993404394304           -21.925485799925195
    2459493.4583333335           -66678052.96076079           -97020612.51887591           -48135216.64553738           -124.49905075423429           -22.238750187237084
    2459494.4583333335           -64011363.182175055           -97239752.02138872           -48325321.63918742           -123.35626640420321           -22.543520597331778
    2459495.4583333335           -61363836.11337936           -97399880.64007902           -48485115.72385606           -122.2117325945413           -22.839652965031537
    2459496.4583333335           -58737147.53411245           -97501934.02373865           -48614934.90124434           -121.06561446219459           -23.127007616346884
    2459497.4583333335           -56132938.67200838           -97546885.7702425           -48715135.21759309           -119.91809086634981           -23.405449554699125
    2459498.4583333335           -53552815.12315549           -97535746.45857106           -48786092.39287282           -118.7693545506007           -23.674848751157786
    2459499.4583333335           -50998345.799733296           -97469562.65774111           -48828201.437599525           -117.61961228005092           -23.93508043768976
    2459500.4583333335           -48471061.90520805           -97349415.91318843           -48841876.25748511           -116.46908495224014           -24.186025402365786
    2459501.4583333335           -45972455.93770929           -97176421.71108824           -48827549.246103495           -115.31800768105765           -24.42757028539514
    2459502.4583333335           -43503980.72208038           -96951728.4210921           -48785670.86575321           -114.16662985297562           -24.65960787482012
    2459503.4583333335           -41067048.4712134           -96676516.21820661           -48716709.21680023           -113.01521515518485           -24.882037400646045
    2459504.4583333335           -38663029.87720421           -96351995.98423679           -48621149.59565899           -111.86404157553113           -25.09476482614862
    2459505.4583333335           -36293253.23280604           -95979408.18932165           -48499494.041614786           -110.7134013743891           -25.297703135079157
    2459506.4583333335           -33959003.58384527           -95560021.75430782           -48352260.87278092           -109.56360102897789           -25.490772613451597
    2459507.4583333335           -31661521.913015828           -95095132.89438272           -48179984.21135102           -108.41496115090243           -25.67390112460866
    2459508.4583333335           -29402004.355689168           -94586063.94463758           -47983213.49841001           -107.26781637811143           -25.847024376248758
    2459509.4583333335           -27181601.448164865           -94034162.16823857           -47762512.9985739           -106.12251524271305           -26.010086178124475
    2459510.4583333335           -25001417.40898609           -93440798.54763721           -47518461.29462131           -104.97942001660172           -26.163038689138457
    2459511.4583333335           -22862509.453814358           -92807366.5596675           -47251650.77246015           -103.83890653707284           -26.30584265260537
    2459512.4583333335           -20765887.144301534           -92135280.9350541           -46962687.09663521           -102.70136401498604           -26.43846761850569
    2459513.4583333335           -18712511.771624655           -91425976.40302481           -46652188.676654376           -101.56719482849148           -26.56089215160238
    2459514.4583333335           -16703295.775024265           -90680906.42165647           -46320786.12438542           -100.43681430549499           -26.673104024386426
    2459515.4583333335           -14739102.195965916           -89901541.89481536           -45969121.70287638           -99.31065049848938           -26.775100393877118
    2459516.4583333335           -12820744.16837813           -89089369.87614071           -45597848.766774826           -98.1891439556323           -26.866887961417838
    2459517.4583333335           -10948984.44541815           -88245892.2610102           -45207631.19473374           -97.07274749214946           -26.94848311469488
    2459518.4583333335           -9124534.963301271           -87372624.46715032           -44799142.81407514           -95.9619259664638           -27.01991205132017
    2459519.4583333335           -7348056.442624465           -86471094.10457194           -44373066.81798832           -94.85715606557018           -27.08121088343703
    2459520.4583333335           -5620158.0276521295           -85542839.63577922           -43930095.17566022           -93.75892610432535           -27.13242572291698
    2459521.4583333335           -3941396.963996947           -84589409.02688205           -43470928.03559519           -92.66773584342592           -27.173612746846157
    2459522.4583333335           -2312278.315174997           -83612358.39047086           -42996273.12248455           -91.58409633090382           -27.204838243114366
    2459523.4583333335           -733254.7183968723           -82613250.6211486           -42506845.12800233           -90.50852977188546           -27.226178636038462
    2459524.4583333335           795273.819957763           -81593654.02447085           -42003365.09584151           -89.4415694313518           -27.237720492070807
    2459525.4583333335           2272960.0887601674           -80555140.94017275           -41486559.80136372           -88.38375957448086           -27.239560505751122
    2459526.4583333335           3699509.796172291           -79499286.36067343           -40957161.12628437           -87.33565544885491           -27.23180546615506
    2459527.4583333335           5074681.652794406           -78427666.54558505           -40415905.42870244           -86.29782331270769           -27.214572204197157
    2459528.4583333335           6398287.413742512           -77341857.63332747           -39863532.90894838           -85.27084051281132           -27.18798752120738
    2459529.4583333335           7670191.879151657           -76243434.25063199           -39300786.97158797           -84.25529561540588           -27.1521880992837
    2459530.4583333335           8890312.852982119           -75133968.12101935           -38728413.58405087           -83.25178859280423           -27.10732039395321
    2459531.4583333335           10058621.059717894           -74015026.67316951           -38147160.63228482           -82.26093106791298           -27.05354050971989
    2459532.4583333335           11175140.0187231           -72888171.650146           -37557777.273854144           -81.28334661809315           -26.99101405908413
    2459533.4583333335           12239945.876089036           -71754957.72060844           -36961013.28898238           -80.31967113895503           -26.919916005603046
    2459534.4583333335           13253167.19366005           -70616931.09289972           -36357618.42992758           -79.3705532678626           -26.84043049154479
    2459535.4583333335           14214984.695159078           -69475628.13319027           -35748341.76921572           -78.4366548657443           -26.75275065061987
    2459536.4583333335           15125630.96916978           -68332573.98867266           -35133931.047174565           -77.51865155474268           -26.657078406211483
    2459537.4583333335           15985390.128929377           -67189281.21691102           -34515132.019259214           -76.61723330776762           -26.553624255412675
    2459538.4583333335           16794597.428751007           -66047248.422421835           -33892687.80365474           -75.73310508461695           -26.442607039067845
    2459539.4583333335           17553638.83716008           -64907958.901720546           -33267338.229713455           -74.86698750744479           -26.324253697848462
    2459540.4583333335           18262950.566501647           -63772879.297728635           -32639819.187628075           -74.01961756662733           -26.198799014254796
    2459541.4583333335           18923018.559303477           -62643458.265015855           -32010861.980018996           -73.19174934558127           -26.06648534020221
    2459542.4583333335           19534377.931153312           -61521125.14668692           -31381192.675798204           -72.38415475090746           -25.92756230969008
    2459543.4583333335           20097612.37043181           -60407288.66437799           -30751531.466989197           -71.5976242310973           -25.782286535780297
    2459544.4583333335           20613353.494835533           -59303335.62234699           -30122592.028953698           -70.83296746410161           -25.630921290916923
    2459545.4583333335           21082280.164979815           -58210629.62696445           -29495080.884633295           -70.09101399026885           -25.473736169350545
    2459546.4583333335           21505117.7551632           -57130509.822714835           -28869696.77332262           -69.37261376325932           -25.311006730218207
    2459547.4583333335           21882637.38177315           -56064289.64606242           -28247130.024609398           -68.67863758675156           -25.14301411956716
    2459548.4583333335           22215655.089263745           -55013255.59815983           -27628061.93794068           -68.00997740006275           -24.970044669474056
    2459549.4583333335           22505030.994444832           -53978666.03786427           -27013164.168508735           -67.36754636963168           -24.792389472165187
    2459550.4583333335           22751668.38915325           -52961749.996119455           -26403098.119963177           -66.7522787375542           -24.610343927022292
    2459551.4583333335           22956512.801917724           -51963706.012988135           -25798514.344560068           -66.16512937114506           -24.42420725826966
    2459552.4583333335           23120551.019061618           -50985700.99855004           -25200051.951334056           -65.60707295022657           -24.23428200124794
    2459553.4583333335           23244810.06569106           -50028869.118852355           -24608338.022868875           -65.07910272090086           -24.04087345540275
    2459554.4583333335           23330356.14726977           -49094310.70817368           -24023987.041278098           -64.58222873598366           -23.844289102475138
    2459555.4583333335           23378293.552345403           -48183091.20878878           -23447600.323979836           -64.1174754937024           -23.64483798900858
    2459556.4583333335           23389763.517116196           -47296240.13941788           -22879765.469845474           -63.68587887740102           -23.442830073126764
    2459557.4583333335           23365943.05250473           -46434750.09355128           -22321055.816315357           -63.288482290518           -23.238575536713903
    2459558.4583333335           23308043.73475221           -45599575.76890802           -21772029.908111203           -62.92633187296894           -23.032384065593693
    2459559.4583333335           23217310.46001059           -44791633.02903048           -21233230.97804287           -62.600470678859374           -22.824564102277105
    2459560.4583333335           23095020.16413036           -44011797.99833313           -20705186.440585617           -62.31193169025232           -22.615422078116083
    2459561.4583333335           22942480.508493025           -43260906.191641085           -20188407.398750085           -62.06172954010395           -22.40526163451636
    2459562.4583333335           22761028.53275326           -42539751.67932671           -19683388.16481773           -61.850850819630956           -22.19438284613421
    2459563.4583333335           22552029.275723256           -41849086.28918017           -19190605.79553238           -61.6802428523632           -21.983081462594807
    2459564.4583333335           22316874.36537659           -41189618.84602821           -18710519.642276604           -61.55080083136807           -21.771648189316927
    2459565.4583333335           22056980.579140782           -40562014.45016629           -18243570.91679998           -61.46335323833759           -21.56036803222747
    2459566.4583333335           21773788.37572112           -39966893.79559049           -17790182.273022227           -61.4186454955288           -21.34951973531731
    2459567.4583333335           21468760.39965591           -39404832.52902281           -17350757.405454487           -61.417321845790624           -21.139375343886567
    2459568.4583333335           21143379.959867902           -38876360.650636606           -16925680.664727785           -61.45990551331048           -20.930199929420315
    2459569.4583333335           20799149.483619           -38381961.95741901           -16515316.690752948           -61.54677726959636           -20.72225151390417
    2459570.4583333335           20437588.947302572           -37922073.53003305           -16120010.063999366           -61.678152616202986           -20.515781231367168
    2459571.4583333335           20060234.28530757           -37497085.26397154           -15740084.975337494           -61.85405789761278           -20.311033761884897
    2459572.4583333335           19668635.778729472           -37107339.44583233           -15375844.91493855           -62.07430577171129           -20.108248067343492
    2459573.4583333335           19264356.425130162           -36753130.37541078           -15027572.380633458           -62.33847059001643           -19.90765844850798
    2459574.4583333335           18848970.29117869           -36434704.034334555           -14695528.606181093           -62.6458643673719           -19.709495928548023
    2459575.4583333335           18424060.849630583           -36152257.80185886           -14379953.309822965           -62.9955141459987           -19.513989949176587
    2459576.4583333335           17991219.302340694           -35905940.21843232           -14081064.463522924           -63.38614167011556           -19.32137034196141
    2459577.4583333335           17552042.89092875           -35695850.79756308           -13799058.083236445           -63.816146374099375           -19.131869509980348
    2459578.4583333335           17108133.196899273           -35522039.886472866           -13534108.040553818           -64.28359273583173           -18.94572472524216
    2459579.4583333335           16661094.432791831           -35384508.575981244           -13286365.896028636           -64.78620304519086           -18.763180417404925
    2459580.4583333335           16212531.726405237           -35283208.65997196           -13055960.754484164           -65.32135657237153           -18.584490302022363
